{
  "project_info": {
    "project_number": "273568516127",
    "firebase_url": "https://captur-tungurahua.firebaseio.com",
    "project_id": "captur-tungurahua",
    "storage_bucket": "captur-tungurahua.appspot.com"
  },
  "client": [
    {
      "client_info": {
        "mobilesdk_app_id": "1:273568516127:android:0ad80e009548498a",
        "android_client_info": {
          "package_name": "com.engisoftware.capturtungurahua"
        }
      },
      "oauth_client": [
        {
          "client_id": "273568516127-kq5s4gb4b373qdq0rvqi493a30vcb6pm.apps.googleusercontent.com",
          "client_type": 3
        },
        {
          "client_id": "273568516127-u6fjii4ii5mo34517ql27gnltss23ge0.apps.googleusercontent.com",
          "client_type": 3
        }
      ],
      "api_key": [
        {
          "current_key": "AIzaSyBno9dhy3sSx6boPMm8z63hScx4o4XTfJ8"
        }
      ],
      "services": {
        "analytics_service": {
          "status": 1
        },
        "appinvite_service": {
          "status": 1,
          "other_platform_oauth_client": []
        },
        "ads_service": {
          "status": 2
        }
      }
    }
  ],
  "configuration_version": "1"
}